
    {
      "name": "Pokemon #2",
      "description": "A Fire-type Pokemon with a flame at the end of its tail. It evolves into Charmeleon.",
      "image": "https://ipfs.io/ipfs/QmSj4yMKgC8j8GXRs8AKA8hgMAf87PzBRNqjbdEuJQWAMj?filename=2.jpeg",
      "attributes": [
        {
          "trait_type": "Type",
          "value": "Fire"
        },
        {
          "trait_type": "Rarity",
          "value": "Common"
        },
        {
          "trait_type": "Generation",
          "value": "Kanto"
        }
      ]
    }
    
  
  